^C:\USERS\MMIKOFSKI\DOCUMENTS\VISUAL STUDIO 2010\PROJECTS\SIMPLEDRIVER\SIMPLETEST\X64\RELEASE\SIMPLETEST.OBJ|C:\USERS\MMIKOFSKI\DOCUMENTS\VISUAL STUDIO 2010\PROJECTS\SIMPLEDRIVER\SIMPLETEST\X64\RELEASE\STDAFX.OBJ|C:\USERS\MMIKOFSKI\DOCUMENTS\VISUAL STUDIO 2010\PROJECTS\SIMPLEDRIVER\X64\RELEASE\SIMPLEDRIVER.LIB
C:\WINDOWS\WINSXS\X86_MICROSOFT.VC90.CRT_1FC8B3B9A1E18E3B_9.0.30729.6161_NONE_50934F2EBCB7EB57\MSVCR90.DLL
C:\PROGRAM FILES\MICROSOFT SDKS\WINDOWS\V7.0\LIB\X64\KERNEL32.LIB
C:\PROGRAM FILES\MICROSOFT SDKS\WINDOWS\V7.0\LIB\X64\USER32.LIB
C:\PROGRAM FILES\MICROSOFT SDKS\WINDOWS\V7.0\LIB\X64\GDI32.LIB
C:\PROGRAM FILES\MICROSOFT SDKS\WINDOWS\V7.0\LIB\X64\WINSPOOL.LIB
C:\PROGRAM FILES\MICROSOFT SDKS\WINDOWS\V7.0\LIB\X64\COMDLG32.LIB
C:\PROGRAM FILES\MICROSOFT SDKS\WINDOWS\V7.0\LIB\X64\ADVAPI32.LIB
C:\PROGRAM FILES\MICROSOFT SDKS\WINDOWS\V7.0\LIB\X64\SHELL32.LIB
C:\PROGRAM FILES\MICROSOFT SDKS\WINDOWS\V7.0\LIB\X64\OLE32.LIB
C:\PROGRAM FILES\MICROSOFT SDKS\WINDOWS\V7.0\LIB\X64\OLEAUT32.LIB
C:\PROGRAM FILES\MICROSOFT SDKS\WINDOWS\V7.0\LIB\X64\UUID.LIB
C:\PROGRAM FILES\MICROSOFT SDKS\WINDOWS\V7.0\LIB\X64\ODBC32.LIB
C:\PROGRAM FILES\MICROSOFT SDKS\WINDOWS\V7.0\LIB\X64\ODBCCP32.LIB
C:\USERS\MMIKOFSKI\DOCUMENTS\VISUAL STUDIO 2010\PROJECTS\SIMPLEDRIVER\SIMPLETEST\X64\RELEASE\SIMPLETEST.OBJ
C:\USERS\MMIKOFSKI\DOCUMENTS\VISUAL STUDIO 2010\PROJECTS\SIMPLEDRIVER\SIMPLETEST\X64\RELEASE\STDAFX.OBJ
C:\USERS\MMIKOFSKI\DOCUMENTS\VISUAL STUDIO 2010\PROJECTS\SIMPLEDRIVER\X64\RELEASE\SIMPLEDRIVER.LIB
C:\WINDOWS\GLOBALIZATION\SORTING\SORTDEFAULT.NLS
C:\PROGRAM FILES (X86)\MICROSOFT VISUAL STUDIO 9.0\VC\BIN\X86_AMD64\C2.DLL
C:\PROGRAM FILES (X86)\MICROSOFT VISUAL STUDIO 9.0\VC\LIB\AMD64\MSVCRT.LIB
C:\PROGRAM FILES (X86)\MICROSOFT VISUAL STUDIO 9.0\VC\LIB\AMD64\OLDNAMES.LIB
C:\PROGRAM FILES (X86)\MICROSOFT VISUAL STUDIO 9.0\VC\BIN\X86_AMD64\1033\LINKUI.DLL
C:\WINDOWS\SYSTEM32\TZRES.DLL
